%YAML 1.1
%TAG !u! tag:unity3d.com,2011:
--- !u!1045 &1
EditorBuildSettings:
  m_ObjectHideFlags: 0
  serializedVersion: 2
  m_Scenes:
  - enabled: 1
    path: Assets/Scenes/EscenaInicial.unity
    guid: 6e741e9597b32464db0c99c579f5efe7
  - enabled: 1
    path: Assets/Scenes/Derecha/ClaviculaDer.unity
    guid: cfb6496c4c8026d46a86f7e353f99827
  - enabled: 1
    path: Assets/Scenes/Derecha/CubitoDer.unity
    guid: c23a387b7780a9a48a3d45f62f7eb4b9
  - enabled: 1
    path: Assets/Scenes/Derecha/FemurDer.unity
    guid: 8fb133d19db01c6409c36037b2186db3
  - enabled: 1
    path: Assets/Scenes/Derecha/HumeroDer.unity
    guid: 66a6aee7b455b9d4798afe7ec46b370d
  - enabled: 1
    path: Assets/Scenes/Derecha/PeroneDer.unity
    guid: 9e8acefe962a687499d4a8dd856b36b0
  - enabled: 1
    path: Assets/Scenes/Derecha/RadioCubitoDer.unity
    guid: 751fd7c2ccb73ad489fe13a1964837cc
  - enabled: 1
    path: Assets/Scenes/Derecha/RadioDer.unity
    guid: 6797e1431787c2d4f97426cb6b1d599e
  - enabled: 1
    path: Assets/Scenes/Derecha/TibiaDer.unity
    guid: 8e915b04f155cf341a2c56769766a2ec
  - enabled: 1
    path: Assets/Scenes/Derecha/TibiaPeroneDer.unity
    guid: 8567744651c302b47a7515e918a2b316
  - enabled: 1
    path: Assets/Scenes/Izquierda/ClaviculaIzq.unity
    guid: 3acc1b0f9557d2d49b85c73d03779667
  - enabled: 1
    path: Assets/Scenes/Izquierda/CubitoIzq.unity
    guid: f2f79259785a97f49b1fc817fde49235
  - enabled: 1
    path: Assets/Scenes/Izquierda/HumeroIzq.unity
    guid: 7942044d68fac6541a780e91d2764560
  - enabled: 1
    path: Assets/Scenes/Izquierda/PeroneIzq.unity
    guid: c0d4a012f71349948a3286690db9b785
  - enabled: 1
    path: Assets/Scenes/Izquierda/RadioCubitoIzq.unity
    guid: 6eff28f782b18b74ba523f6ed8e6965e
  - enabled: 1
    path: Assets/Scenes/Izquierda/RadioIzq.unity
    guid: d5928e83704a0f14b8ad05dabf781605
  - enabled: 1
    path: Assets/Scenes/Izquierda/TibiaIzq.unity
    guid: f51f9baa95de8b04ea195303305db57b
  - enabled: 1
    path: Assets/Scenes/Izquierda/TibiaPeroneIzq.unity
    guid: 7bd124bd64f9f5f42963ebb85e3d5487
  - enabled: 1
    path: Assets/Scenes/Izquierda/FemurIzq.unity
    guid: 90f37f165f64332448cb214ea9a5784f
  m_configObjects: {}
